Introduction to R for the Geosciences - 2 Vector data
…
library(ggplot2)
library(sf)
library(tmap)

2.1 Read data into R

rivers = read_sf("data/nz-river-centrelines-topo-1500k.gpkg")
rivers

Simple feature collection with 7894 features and 0 fields
Geometry type: MULTILINESTRING
Dimension:     XY
Bounding box:  xmin: 1090841 ymin: 4753217 xmax: 2085682 ymax: 6190544
Projected CRS: NZGD2000 / New Zealand Transverse Mercator 2000
# A tibble: 7,894 × 1
                                                                            geom
                                                           <MULTILINESTRING [m]>
 1 ((1188893 4876720, 1188961 4876789, 1189209 4876888, 1189352 4877037, 118941…
 2 ((1212357 4985134, 1212190 4985017, 1212190 4984899, 1212240 4984833, 121222…
 3        ((1793234 5835222, 1793051 5835188, 1793001 5835221, 1792804 5835245))
 4 ((1237766 4958688, 1237833 4958555, 1237861 4958499, 1237950 4958321, 123818…
 5 ((1479132 5112613, 1479112 5112458, 1479143 5112127, 1479307 5111749, 147945…
 6 ((1331799 4889014, 1331743 4889153, 1331644 4889637, 1331644 4889652, 133164…
 7 ((1421067 5030500, 1421156 5030431, 1421280 5030411, 1421412 5030354, 142154…
 8 ((1137668 4888410, 1137186 4888320, 1136813 4888447, 1136732 4888437, 113655…
 9 ((1460473 5142519, 1460661 5141978, 1460657 5141736, 1460724 5141519, 146086…
10 ((1473259 5181908, 1473317 5181722, 1473317 5181472, 1473417 5181388, 147353…
# ℹ 7,884 more rows
…
st_transform(rivers, 4326)

Simple feature collection with 7894 features and 0 fields
Geometry type: MULTILINESTRING
Dimension:     XY
Bounding box:  xmin: 166.4349 ymin: -47.24322 xmax: 178.5062 ymax: -34.42658
Geodetic CRS:  WGS 84
# A tibble: 7,894 × 1
                                                                            geom
 *                                                         <MULTILINESTRING [°]>
 1 ((167.6771 -46.139, 167.678 -46.13843, 167.6813 -46.13769, 167.6833 -46.1364…
 2 ((168.0661 -45.1806, 168.0639 -45.18155, 168.0638 -45.1826, 168.0644 -45.183…
 3 ((175.1892 -37.60982, 175.1872 -37.61016, 175.1866 -37.60987, 175.1843 -37.6…
 4 ((168.3691 -45.43137, 168.3698 -45.4326, 168.3701 -45.43312, 168.3711 -45.43…
 5 ((171.4891 -44.12969, 171.4889 -44.13108, 171.4892 -44.13407, 171.4911 -44.1…
 6 ((169.53 -46.09975, 169.5294 -46.09848, 169.5283 -46.09409, 169.5284 -46.093…
 7 ((170.7354 -44.85646, 170.7365 -44.8571, 170.738 -44.85731, 170.7397 -44.857…
 8 ((167.0287 -46.00162, 167.0224 -46.00211, 167.0177 -46.00072, 167.0167 -46.0…
 9 ((171.2639 -43.85723, 171.2661 -43.86213, 171.266 -43.86431, 171.2667 -43.86…
10 ((171.4322 -43.50501, 171.4328 -43.5067, 171.4328 -43.50895, 171.434 -43.509…
# ℹ 7,884 more rows
…
2.3 Geometrical operations

rivers["length"] = st_length(rivers)
rivers

Simple feature collection with 7894 features and 1 field
Geometry type: MULTILINESTRING
Dimension:     XY
Bounding box:  xmin: 1090841 ymin: 4753217 xmax: 2085682 ymax: 6190544
Projected CRS: NZGD2000 / New Zealand Transverse Mercator 2000
# A tibble: 7,894 × 2
                                                                     geom length
                                                    <MULTILINESTRING [m]>    [m]
 1 ((1188893 4876720, 1188961 4876789, 1189209 4876888, 1189352 4877037,… 73029.
 2 ((1212357 4985134, 1212190 4985017, 1212190 4984899, 1212240 4984833,… 45755.
 3 ((1793234 5835222, 1793051 5835188, 1793001 5835221, 1792804 5835245))   445.
 4 ((1237766 4958688, 1237833 4958555, 1237861 4958499, 1237950 4958321,… 32311.
 5 ((1479132 5112613, 1479112 5112458, 1479143 5112127, 1479307 5111749,…  1391.
 6 ((1331799 4889014, 1331743 4889153, 1331644 4889637, 1331644 4889652,… 61151.
 7 ((1421067 5030500, 1421156 5030431, 1421280 5030411, 1421412 5030354,… 36612.
 8 ((1137668 4888410, 1137186 4888320, 1136813 4888447, 1136732 4888437,…  1622.
 9 ((1460473 5142519, 1460661 5141978, 1460657 5141736, 1460724 5141519,…  2582.
10 ((1473259 5181908, 1473317 5181722, 1473317 5181472, 1473417 5181388,… 53171.
# ℹ 7,884 more rows
…
Error in geos_op2_geom("intersection", x, y, ...): st_crs(x) == st_crs(y) is not TRUE

gisborne = st_transform(gisborne, st_crs(rivers))
rivers |> st_intersection(gisborne)

Warning: attribute variables are assumed to be spatially constant throughout
all geometries

Simple feature collection with 286 features and 7 fields
Geometry type: GEOMETRY
Dimension:     XY
Bounding box:  xmin: 1964161 ymin: 5676307 xmax: 2085682 ymax: 5829474
Projected CRS: NZGD2000 / New Zealand Transverse Mercator 2000
# A tibble: 286 × 8
   length Name     Island Land_area Population Median_income Sex_ratio
 *    [m] <chr>    <chr>      <dbl>      <dbl>         <int>     <dbl>
 1 25580. Gisborne North      8386.      48500         24400     0.935
 2 55146. Gisborne North      8386.      48500         24400     0.935
 3 30760. Gisborne North      8386.      48500         24400     0.935
 4 28458. Gisborne North      8386.      48500         24400     0.935
 5 29961. Gisborne North      8386.      48500         24400     0.935
 6 25386. Gisborne North      8386.      48500         24400     0.935
 7 28251. Gisborne North      8386.      48500         24400     0.935
 8 28476. Gisborne North      8386.      48500         24400     0.935
 9 29663. Gisborne North      8386.      48500         24400     0.935
10  9291. Gisborne North      8386.      48500         24400     0.935
# ℹ 276 more rows
# ℹ 1 more variable: geom <LINESTRING [m]>

rivers |> st_join(gisborne, left = FALSE, join = st_intersects)

Simple feature collection with 286 features and 7 fields
Geometry type: MULTILINESTRING
Dimension:     XY
Bounding box:  xmin: 1964161 ymin: 5665081 xmax: 2085682 ymax: 5830551
Projected CRS: NZGD2000 / New Zealand Transverse Mercator 2000
# A tibble: 286 × 8
                                   geom length Name  Island Land_area Population
 *                <MULTILINESTRING [m]>    [m] <chr> <chr>      <dbl>      <dbl>
 1 ((2020380 5682629, 2020497 5682630,… 25580. Gisb… North      8386.      48500
 2 ((2047236 5739047, 2047119 5738963,… 55146. Gisb… North      8386.      48500
 3 ((1992989 5756684, 1992939 5756835,… 30760. Gisb… North      8386.      48500
 4 ((2009450 5761922, 2009383 5761988,… 28458. Gisb… North      8386.      48500
 5 ((2059935 5763492, 2059842 5763462,… 29961. Gisb… North      8386.      48500
 6 ((2027788 5774462, 2027789 5774211,… 25386. Gisb… North      8386.      48500
 7 ((2035023 5793818, 2035107 5793618,… 28251. Gisb… North      8386.      48500
 8 ((2064446 5774410, 2064479 5774661,… 28476. Gisb… North      8386.      48500
 9 ((2083085 5804913, 2082742 5805001,… 29663. Gisb… North      8386.      48500
10 ((1998917 5702907, 1998927 5702908,…  9291. Gisb… North      8386.      48500
# ℹ 276 more rows
# ℹ 2 more variables: Median_income <int>, Sex_ratio <dbl>

rivers |> st_join(gisborne, left = FALSE, join = st_within)

Simple feature collection with 248 features and 7 fields
Geometry type: MULTILINESTRING
Dimension:     XY
Bounding box:  xmin: 1967989 ymin: 5687240 xmax: 2085682 ymax: 5829458
Projected CRS: NZGD2000 / New Zealand Transverse Mercator 2000
# A tibble: 248 × 8
                                   geom length Name  Island Land_area Population
 *                <MULTILINESTRING [m]>    [m] <chr> <chr>      <dbl>      <dbl>
 1 ((2047236 5739047, 2047119 5738963,… 55146. Gisb… North      8386.      48500
 2 ((2009450 5761922, 2009383 5761988,… 28458. Gisb… North      8386.      48500
 3 ((2059935 5763492, 2059842 5763462,… 29961. Gisb… North      8386.      48500
 4 ((2027788 5774462, 2027789 5774211,… 25386. Gisb… North      8386.      48500
 5 ((2064446 5774410, 2064479 5774661,… 28476. Gisb… North      8386.      48500
 6 ((1998917 5702907, 1998927 5702908,…  9291. Gisb… North      8386.      48500
 7 ((2001680 5712195, 2001746 5712112,…  8166. Gisb… North      8386.      48500
 8 ((2068319 5787066, 2067617 5787365,…  6851. Gisb… North      8386.      48500
 9 ((2058857 5789186, 2058757 5789287,…  8277. Gisb… North      8386.      48500
10 ((2070487 5798783, 2070335 5799153,…  8971. Gisb… North      8386.      48500
# ℹ 238 more rows
# ℹ 2 more variables: Median_income <int>, Sex_ratio <dbl>

rivers |> st_filter(gisborne, .predicate = st_within)

Simple feature collection with 248 features and 1 field
Geometry type: MULTILINESTRING
Dimension:     XY
Bounding box:  xmin: 1967989 ymin: 5687240 xmax: 2085682 ymax: 5829458
Projected CRS: NZGD2000 / New Zealand Transverse Mercator 2000
# A tibble: 248 × 2
                                                                     geom length
 *                                                  <MULTILINESTRING [m]>    [m]
 1 ((2047236 5739047, 2047119 5738963, 2047119 5738846, 2047002 5738779,… 55146.
 2 ((2009450 5761922, 2009383 5761988, 2009365 5762322, 2009332 5762372,… 28458.
 3 ((2059935 5763492, 2059842 5763462, 2059015 5763608, 2059005 5763649,… 29961.
 4 ((2027788 5774462, 2027789 5774211, 2027839 5774111, 2027956 5773978,… 25386.
 5 ((2064446 5774410, 2064479 5774661, 2064680 5774745, 2064713 5774812,… 28476.
 6 ((1998917 5702907, 1998927 5702908, 1999151 5702924, 1999234 5702834,…  9291.
 7 ((2001680 5712195, 2001746 5712112, 2001747 5711995, 2001663 5711761,…  8166.
 8 ((2068319 5787066, 2067617 5787365, 2067366 5787398, 2067249 5787482,…  6851.
 9 ((2058857 5789186, 2058757 5789287, 2058590 5789253, 2058556 5789286,…  8277.
10 ((2070487 5798783, 2070335 5799153, 2070277 5799363, 2070312 5799653,…  8971.
# ℹ 238 more rows
…
